#!/bin/bash
#@ wall_clock_limit = 24:00:00
#@ job_name = mbsolve
#@ job_type = parallel
#@ class = fat
#@ node = 1
#@tasks_per_node = 1
#@ node_usage = not_shared
#@ initialdir = $(home)/
#@ output = omp-os-def-$(jobid).out
#@ error = omp-os-def-$(jobid).out
#@ notification=always
#@ queue

. /etc/profile
. /etc/profile.d/modules.sh

module load boost/1.61_icc

mbsolve/tools/loadleveler/run_sim.sh cpu-2lvl-os 1 40 40
